{
	"icon":
	{
		"maskable": true,
		"sizes":
		{
			"Icon16.png": [16, 16],
			"Icon20.png": [20, 20],
			"Icon24.png": [24, 24],
			"Icon30.png": [30, 30],
			"Icon32.png": [32, 32],
			"Icon36.png": [36, 36],
			"Icon40.png": [40, 40],
			"Icon48.png": [48, 48],
			"Icon60.png": [60, 60],
			"Icon64.png": [64, 64],
			"Icon72.png": [72, 72],
			"Icon80.png": [80, 80],
			"Icon96.png": [96, 96],
			"Icon128.png": [128, 128],
			"Icon256.png": [256, 256],
			"Icon320.png": [320, 320],
			"Icon384.png": [384, 384],
			"Icon512.png": [512, 512]
		}
	}
}
